…
`parallel = TRUE`とすることで並列化により、実行速度が早くなるかもしれません。

``` r
lonlat2name(lon, lat, shape = japan, target = "df", parallel = TRUE)
```

ちなみに、`{jpndistrict}`というパッケージの中にはこのようなデータが含まれていて、便利です。

``` r
jpndistrict::jpnprefs
```

    ## # A tibble: 47 x 11
    ##    jis_code prefecture capital region major_island prefecture_en capital_en
    ##    <chr>    <chr>      <chr>   <chr>  <chr>        <chr>         <chr>     
    ##  1 01       北海道     札幌市  北海道 北海道       Hokkaido      Sapporo-s…
    ##  2 02       青森県     青森市  東北   本州         Aomori-ken    Aomori-shi
    ##  3 03       岩手県     盛岡市  東北   本州         Iwate-ken     Morioka-s…
    ##  4 04       宮城県     仙台市  東北   本州         Miyagi-ken    Sendai-shi
    ##  5 05       秋田県     秋田市  東北   本州         Akita-ken     Akita-shi 
    ##  6 06       山形県     山形市  東北   本州         Yamagata-ken  Yamagata-…
    ##  7 07       福島県     福島市  東北   本州         Fukushima-ken Fukushima…
    ##  8 08       茨城県     水戸市  関東   本州         Ibaraki-ken   Mito-shi  
    ##  9 09       栃木県     宇都宮市… 関東   本州         Tochigi-ken   Utsunomiy…
    ## 10 10       群馬県     前橋市  関東   本州         Gunma-ken     Maebashi-…
    ## # … with 37 more rows, and 4 more variables: region_en <chr>,
    ## #   major_island_en <chr>, capital_latitude <dbl>, capital_longitude <dbl>
…
